{
    "2024-01-29": 3004,
    "2024-02-05": 2135,
    "2024-02-12": 2328,
    "2024-02-19": 7057,
    "2024-02-26": 5783,
    "2024-03-04": 3162,
    "2024-03-11": 2572,
    "2024-03-18": 2204,
    "2024-03-25": 7069,
    "2024-04-01": 6536,
    "2024-04-08": 12652,
    "2024-04-15": 4031,
    "2024-04-22": 3809,
    "2024-04-29": 15074,
    "2024-05-06": 4245,
    "2024-05-13": 3925,
    "2024-05-20": 2829,
    "2024-05-27": 2693,
    "2024-06-03": 2501,
    "2024-06-10": 2048,
    "2024-06-17": 1982,
    "2024-06-24": 2061,
    "2024-07-01": 17532,
    "2024-07-08": 5066,
    "2024-07-15": 3448,
    "2024-07-22": 3282,
    "2024-07-29": 2363,
    "2024-08-05": 2566,
    "2024-08-12": 2355,
    "2024-08-19": 2196,
    "2024-08-26": 1792,
    "2024-09-02": 1735,
    "2024-09-09": 11972,
    "2024-09-16": 15564,
    "2024-09-23": 5930
}