{
  "errors": {
    "400": {
      "hits": 203,
      "paths": {
        "": 147
      }
    }
  },
  "firstProcessedDate": "2024-03-12T00:11:24+00:00",
  "hits": 3038,
  "hitsPerCountry": {
    "DE": 280,
    "FR": 292,
    "LU": 249,
    "NL": 355,
    "PL": 420,
    "RU": 189,
    "US": 533
  },
  "lastProcessedDate": "2024-03-17T23:58:17+00:00",
  "paths": {
    "/": {
      "hits": 2330,
      "hitsPerCountry": {
        "DE": 275,
        "FR": 286,
        "LU": 249,
        "NL": 319,
        "PL": 419,
        "US": 289
      }
    },
    "/users/sign_in": {
      "hits": 141
    }
  },
  "queries": {},
  "weekStartDate": "2024-03-11T00:00:00+00:00"
}